<?xml version="1.0" encoding="utf-8"?>
<!-- Generator: Adobe Illustrator 22.0.1, SVG Export Plug-In . SVG Version: 6.00 Build 0)  -->
<svg version="1.1" id="Layer_1" xmlns="http://www.w3.org/2000/svg" xmlns:xlink="http://www.w3.org/1999/xlink" x="0px" y="0px"
	 width="340px" height="140px" viewBox="0 0 340 140" style="enable-background:new 0 0 340 140;" xml:space="preserve">
<style type="text/css">
	.st0{clip-path:url(#SVGID_2_);}
	.st1{fill:#FFFFFF;}
</style>
<g>
	<defs>
		<rect id="SVGID_1_" y="0" width="340" height="140"/>
	</defs>
	<use xlink:href="#SVGID_1_"  style="overflow:visible;fill:#FFFFFF;"/>
	<clipPath id="SVGID_2_">
		<use xlink:href="#SVGID_1_"  style="overflow:visible;"/>
	</clipPath>
	<g class="st0">
		<path class="st1" d="M10,10h320v120h-20v10h20h10v-10V10V0h-10H10H0v10v120v10h10h180v-10H10V10z"/>
		<path class="st1" d="M220.1,123.2c1.5,0,2.8,0.3,3.9,0.8s2,1.2,2.6,2.1c0.6,0.9,0.9,1.9,0.9,3c0,1.8-0.6,3.2-1.7,4.2
			c-1.1,1-3,1.5-5.7,1.5h-3.2v4.6c0,0.2-0.1,0.3-0.2,0.5c-0.1,0.1-0.3,0.2-0.5,0.2H211c-0.2,0-0.3-0.1-0.5-0.2
			c-0.1-0.1-0.2-0.3-0.2-0.5v-15.5c0-0.2,0.1-0.3,0.2-0.5c0.1-0.1,0.3-0.2,0.5-0.2H220.1z M220,130.3c0.4,0,0.7-0.1,0.9-0.3
			c0.2-0.2,0.3-0.6,0.3-0.9c0-0.4-0.1-0.7-0.3-1c-0.2-0.3-0.5-0.4-0.9-0.4h-3v2.6H220z"/>
		<path class="st1" d="M246.5,139.2c-0.2,0.5-0.6,0.8-1.1,0.8h-4.5c-0.1,0-0.3,0-0.4-0.1c-0.1-0.1-0.1-0.2-0.1-0.4v-0.1l5.2-15.3
			c0.1-0.2,0.2-0.4,0.4-0.6s0.4-0.2,0.7-0.2h6.7c0.3,0,0.5,0.1,0.7,0.2c0.2,0.2,0.3,0.3,0.4,0.6l5.2,15.3v0.1c0,0.1-0.1,0.3-0.2,0.4
			c-0.1,0.1-0.2,0.1-0.4,0.1h-4.5c-0.5,0-0.9-0.3-1.1-0.8l-0.6-1.7H247L246.5,139.2z M250.1,127.8l-1.7,5h3.4L250.1,127.8z"/>
		<path class="st1" d="M291.2,123.2c0.1,0,0.3,0.1,0.4,0.2s0.2,0.2,0.2,0.3c0,0.1,0,0.2-0.1,0.3l-6,10v5.4c0,0.2-0.1,0.3-0.2,0.5
			c-0.1,0.1-0.3,0.2-0.5,0.2h-5.1c-0.2,0-0.3-0.1-0.5-0.2c-0.2-0.1-0.2-0.3-0.2-0.5V134l-6-10c0-0.1-0.1-0.2-0.1-0.3
			c0-0.1,0-0.3,0.1-0.4c0.1-0.1,0.2-0.2,0.4-0.2h5.1c0.4,0,0.8,0.2,1,0.6l2.7,4.8l2.8-4.7c0.2-0.4,0.6-0.6,1-0.6H291.2z"/>
		<path class="st1" d="M122.3,47.3l4.2-17.2H66.9c-9-0.2-26.9,4.3-26.9,23.6s13.7,24.5,20.6,24.7h45.9c5.8,0,6.5,4.8,6.3,6.9
			c0,6-3.8,6.8-5.9,6.8H45.3l-4.3,18h68.1c7.4-0.8,22.2-7,22.2-25.9s-13.7-24-20.6-24.2H66.9c-1.1,0-6.3-0.6-6.3-6.3
			c0-4.6,2.6-6.3,6.3-6.3h55.4V47.3z"/>
		<path class="st1" d="M130.2,47.3l4.2-17.3h41.9c8,0,27.6,1.7,27.6,25.9c0,19.3-13.4,24.5-20.2,24.7h-8.5l28.7,29.3h-26.5l-43-45.4
			h43c5.9,0,6.9-5.4,6.9-8.2c0-7.4-5.3-9-8-9H130.2z"/>
		<path class="st1" d="M274.3,47.4c2.9,0.5,5.5,3.5,5.5,9c0,7.6-2.7,10.2-8.4,10.2H230h-20.2v18.3V110H230V84.8h49.9
			c7.3-0.5,20.2-6.5,20.2-28c0-8.9-4.2-26.8-21.1-26.8c-0.2,0-0.4,0-0.6,0h-77.5c0,0,3.7,2.6,6.4,8.3s2.7,9.1,2.7,9.1H274.3z"/>
	</g>
</g>
</svg>
